…
         word != "al",
         word != "dowellsars",
         word != "h",
         word != "tabular",
         word != "t",
         word != "ref",
         word != "cite",
         !str_detect(word, "[a-z]_"),
         !str_detect(word, ":"),
         word != "bar",
         word != "emph",
         !str_detect(word, "textless"))
thesis_words

## # A tibble: 27,787 × 3
##            file line_number        word
##          <fctr>       <int>       <chr>
## 1  introduction           1 seasonality
## 2  introduction           1          or
## 3  introduction           1         the
## 4  introduction           1    periodic
## 5  introduction           1      surges
## 6  introduction           1         and
## 7  introduction           1       lulls
## 8  introduction           1          in
## 9  introduction           1   incidence
## 10 introduction           1          is
## # ... with 27,777 more rows
…
