…
Using tidytext, it is straightforward to unnest and tokenize the words in the body of the tweets:

words <- trump %>%
  select(id, statusSource, retweetCount, favoriteCount, created, isRetweet,
         text) %>%
  unnest_tokens(word, text)
words

## # A tibble: 57,239 x 7
##                    id
##                 <chr>
## 1  830195857530183684
## 2  830195857530183684
## 3  830195857530183684
## 4  830195857530183684
## 5  830195857530183684
## 6  830195857530183684
## 7  830195857530183684
## 8  830195857530183684
## 9  830195857530183684
## 10 830195857530183684
## # ... with 57,229 more rows, and 6 more variables: statusSource <chr>,
## #   retweetCount <dbl>, favoriteCount <dbl>, created <time>,
## #   isRetweet <lgl>, word <chr>

Given what David Robinson found, we might want to convert the statusSource variable into a flag for whether it was posted via an Android device:

words <- words %>%
  mutate(android = stringr::str_detect(statusSource, "Android")) %>%
  select(- statusSource)
words

## # A tibble: 57,239 x 7
##                    id retweetCount favoriteCount             created
##                 <chr>        <dbl>         <dbl>              <time>
## 1  830195857530183684        21473         77699 2017-02-10 23:24:51
## 2  830195857530183684        21473         77699 2017-02-10 23:24:51
## 3  830195857530183684        21473         77699 2017-02-10 23:24:51
## 4  830195857530183684        21473         77699 2017-02-10 23:24:51
## 5  830195857530183684        21473         77699 2017-02-10 23:24:51
## 6  830195857530183684        21473         77699 2017-02-10 23:24:51
## 7  830195857530183684        21473         77699 2017-02-10 23:24:51
## 8  830195857530183684        21473         77699 2017-02-10 23:24:51
## 9  830195857530183684        21473         77699 2017-02-10 23:24:51
## 10 830195857530183684        21473         77699 2017-02-10 23:24:51
## # ... with 57,229 more rows, and 3 more variables: isRetweet <lgl>,
## #   word <chr>, android <lgl>

Let’s now code the tweets using the afinn sentiment set:

words <- words %>%
  inner_join(get_sentiments("afinn"))

## Joining, by = "word"

words

## # A tibble: 5,093 x 8
##                    id retweetCount favoriteCount             created
##                 <chr>        <dbl>         <dbl>              <time>
## 1  830047626414477312        19779         85576 2017-02-10 13:35:50
## 2  830047626414477312        19779         85576 2017-02-10 13:35:50
## 3  830042498806460417        15069         71312 2017-02-10 13:15:27
## 4  829721019720015872        10082         64348 2017-02-09 15:58:01
## 5  829721019720015872        10082         64348 2017-02-09 15:58:01
## 6  829689436279603206        14185         84125 2017-02-09 13:52:31
## 7  829689436279603206        14185         84125 2017-02-09 13:52:31
## 8  829689436279603206        14185         84125 2017-02-09 13:52:31
## 9  829689436279603206        14185         84125 2017-02-09 13:52:31
## 10 829689436279603206        14185         84125 2017-02-09 13:52:31
## # ... with 5,083 more rows, and 4 more variables: isRetweet <lgl>,
## #   word <chr>, android <lgl>, score <int>
…
